Week 3: Bonus Material
…
c) Add spatial coordinates and site variables to ‘other’ slot

The data in Frog.sites are at the site level, whereas the genetic data are at the individual level (181 frogs). We can extract the corresponding site data for each frog and add them to the genind object.

tmp <- dplyr::left_join(x=data.frame(Pop=Frogs.genind@pop), 
                 y=Frogs.sites, 
                 by = c("Pop" = "Pop"))
as.tibble(tmp)

## # A tibble: 181 x 23
##         Pop     SiteName     n Longitude Latitude coords.x1 coords.x2
##      <fctr>        <chr> <int>     <dbl>    <dbl>     <dbl>     <dbl>
##  1 Airplane AirplaneLake    21 -114.5977 45.15708  688816.6   5003207
##  2 Airplane AirplaneLake    21 -114.5977 45.15708  688816.6   5003207
##  3 Airplane AirplaneLake    21 -114.5977 45.15708  688816.6   5003207
##  4 Airplane AirplaneLake    21 -114.5977 45.15708  688816.6   5003207
##  5 Airplane AirplaneLake    21 -114.5977 45.15708  688816.6   5003207
##  6 Airplane AirplaneLake    21 -114.5977 45.15708  688816.6   5003207
##  7 Airplane AirplaneLake    21 -114.5977 45.15708  688816.6   5003207
##  8 Airplane AirplaneLake    21 -114.5977 45.15708  688816.6   5003207
##  9 Airplane AirplaneLake    21 -114.5977 45.15708  688816.6   5003207
## 10 Airplane AirplaneLake    21 -114.5977 45.15708  688816.6   5003207
## # ... with 171 more rows, and 16 more variables: Drainage <chr>,
## #   Basin <chr>, Substrate <chr>, NWI <chr>, AREA_m2 <dbl>, PERI_m <dbl>,
## #   Depth_m <dbl>, TDS <dbl>, FISH <int>, ACB <dbl>, AUC <dbl>,
## #   AUCV <dbl>, AUCC <dbl>, AUF <dbl>, AWOOD <dbl>, AUFV <dbl>
…
