Week 5: Metapopulation Genetics
…
?dd.ecogen   

We also import site-level data from Tables 2 - 5 in Lamy et al. (2012). Use ‘?dd.site’ to check helpfile with data set desription of the variables.

data(dd.site, package = "LandGenCourse")
tibble::as.tibble(dd.site)

## # A tibble: 42 x 22
##      SiteID   SITE  YEAR Spatial MultiYear   APE Cluster     n    RA    He
##       <chr> <fctr> <int>   <lgl>     <lgl> <lgl>  <fctr> <int> <dbl> <dbl>
##  1 PICO2006   PICO  2006   FALSE      TRUE FALSE    <NA>    34 11.21 0.897
##  2 PICO2007   PICO  2007   FALSE      TRUE FALSE    <NA>    24 11.36 0.911
##  3 PICO2009   PICO  2009    TRUE      TRUE FALSE    <NA>    32 11.40 0.896
##  4  ROC2006    ROC  2006   FALSE      TRUE FALSE    <NA>    32 11.21 0.831
##  5  ROC2007    ROC  2007    TRUE      TRUE FALSE    <NA>    32 11.04 0.820
##  6  SEN2006    SEN  2006   FALSE      TRUE FALSE    <NA>    32 11.20 0.876
##  7  SEN2007    SEN  2007    TRUE      TRUE FALSE    <NA>    30 11.59 0.880
##  8  VEE2006    VEE  2006   FALSE      TRUE FALSE    <NA>    31 10.54 0.864
##  9  VEE2007    VEE  2007   FALSE      TRUE FALSE    <NA>    32 11.27 0.854
## 10  VEE2008    VEE  2008    TRUE      TRUE FALSE    <NA>    31 11.18 0.871
## # ... with 32 more rows, and 12 more variables: f <dbl>, s <dbl>,
## #   Type <fctr>, FST.GESTE <dbl>, Size <dbl>, V <dbl>, C <dbl>,
## #   Stab <dbl>, D <int>, APA <int>, NLT <dbl>, Fst.temp <dbl>
…
