Week 7: Bonus Materials
…
Note: the distance matrices contain 106 patches. All of these are considered as source populations. However, we will only calculate Si indices for the 65 patches included in the Dianthus dataset.

3. Optimize the scaling parameter alpha

In order to calculate Hanski’s index, we first need to optimize the value of alpha for each distance model, using presence-absence data for the two time steps of 1989 and 2009.

Import the patch-level data for all 106 patches in the study area.

Patches <- read.csv(system.file("extdata", "PATCH_XY_Dianthus.csv", 
                            package = "LandGenCourse"),
         header=TRUE, row.names=1)
tibble::as_tibble(Patches)

## # A tibble: 106 × 20
##    patch    id Elements2008 Elements2008.4 cat   type      Ha   area        x
##    <chr> <int>        <int>          <int> <chr> <chr>  <dbl>  <dbl>    <dbl>
##  1 A01       1            1              1 3     A     0.136  0.0014 4431470.
##  2 A02       2            2              2 4     B     0.182  0.0018 4431614.
##  3 A03       3            3              3 4     B     0.206  0.0021 4431320.
##  4 A04       4            0              0 4     B     0.142  0.0014 4431246.
##  5 A05       5            2              2 4     B     0.134  0.0013 4431037.
##  6 A06       6            2              2 4     B     0.201  0.002  4431027.
##  7 A07       7            0              0 3     N     0.0213 0.0002 4431284.
##  8 A07a      8            1              1 4     A     0.200  0.002  4431362.
##  9 A08       9            3              2 5     F     0.464  0.0046 4428814.
## 10 A09      10            4              3 3     F     0.0704 0.0007 4428809.
## # … with 96 more rows, and 11 more variables: y <dbl>, size.cat <int>,
## #   sizeCat <chr>, size.cat2 <chr>, pj08 <dbl>, pj89 <dbl>, pop09 <int>,
## #   grazing <int>, Dc.89 <int>, Dc.09 <int>, Sampled <int>
…
Apply function get.Si to calculate Si values. sb indicates which column of Ap to use as source patch parameter.

sb <- rep(1:3,5)
for (n in 1:ncol(Si))
{
  Si[,n] <- get.Si(alpha=table.alpha[mod[n]], 
                   d=as.matrix(dModels[[mod[n]]]),
                   Ap=Source[,sb[n]])
}

Table with results: values of Si. Column names are a combination of distance matrix and source patch parameter.

tibble::as_tibble(Si)  

## # A tibble: 106 × 15
##    Eu_pj Eu_Aj Eu_Nj Shecte_pj Shecte_Aj Shecte_Nj Sheint_pj Sheint_Aj Sheint_Nj
##    <dbl> <dbl> <dbl>     <dbl>     <dbl>     <dbl>     <dbl>     <dbl>     <dbl>
##  1 0.636 1.21   1.76  8.58e-26  1.42e-25  2.47e-25  3.07e-51  5.07e-51  8.83e-51
##  2 0.626 0.616  1.58  8.52e-26  1.42e-25  2.46e-25  3.05e-51  5.06e-51  8.79e-51
##  3 0.943 0.638  2.32  8.52e-26  1.42e-25  2.46e-25  6.20e- 1  2.27e+ 0  2.05e+ 0
##  4 1.27  0.847  3.30  8.52e-26  1.42e-25  2.46e-25  5.02e- 1  7.71e- 1  1.30e+ 0
##  5 1.50  1.13   4.10  1.26e+ 0  3.41e+ 0  4.21e+ 0  5.04e- 1  4.09e- 1  1.29e+ 0
##  6 1.67  1.44   4.91  2.13e+ 0  6.27e+ 0  7.40e+ 0  7.42e- 1  1.19e+ 0  2.43e+ 0
##  7 2.12  1.98   6.50  8.58e-26  1.42e-25  2.47e-25  3.07e-51  5.07e-51  8.83e-51
##  8 1.21  1.62   3.82  2.00e+ 0  6.83e+ 0  7.11e+ 0  8.76e- 1  1.60e+ 0  2.87e+ 0
##  9 1.60  2.99   4.41  8.52e-26  1.41e-25  2.46e-25  1.00e+ 0  2.56e+ 0  3.32e+ 0
## 10 1.82  2.14   4.38  8.52e-26  1.42e-25  2.46e-25  3.28e- 1  3.53e- 1  7.79e- 1
## # … with 96 more rows, and 6 more variables: Shenu_pj <dbl>, Shenu_Aj <dbl>,
## #   Shenu_Nj <dbl>, Forest_pj <dbl>, Forest_Aj <dbl>, Forest_Nj <dbl>
…
