Week 1: Importing Genetic Data
…
c) Import with function ‘read.csv’

As the file is saved in csv format, we use the function ‘read.csv’ to import it into an R object called ‘Frogs’. Display the first few rows and columns to check whether the data have been imported correctly:

Frogs <- read.csv("./data/ralu.loci.csv", header=TRUE)
as.tibble(Frogs)

## # A tibble: 181 x 10
##        SiteName      Pop      A      B      C      D      E      F      G
##          <fctr>   <fctr> <fctr> <fctr> <fctr> <fctr> <fctr> <fctr> <fctr>
##  1 AirplaneLake Airplane    1:1    1:1    1:1    1:1    1:2    1:1    1:1
##  2 AirplaneLake Airplane    2:2    1:1  NA:NA    1:1    1:1  NA:NA    2:2
##  3 AirplaneLake Airplane    1:1    1:1    1:1    1:1    3:3    1:1    1:1
##  4 AirplaneLake Airplane    1:1    1:1  NA:NA    2:2    1:2  NA:NA  NA:NA
##  5 AirplaneLake Airplane    1:2    1:3    1:1    1:1    1:2    1:1    1:2
##  6 AirplaneLake Airplane    1:2    1:1    1:1    3:1    1:1    1:1    1:2
##  7 AirplaneLake Airplane    2:2    1:3    1:1    1:1    3:3    1:1    1:1
##  8 AirplaneLake Airplane    2:2    1:3    1:1    1:1    3:3    1:1    1:1
##  9 AirplaneLake Airplane    3:1    1:1    1:1    1:1    1:7    1:1    1:1
## 10 AirplaneLake Airplane    2:2    1:3    1:1    1:1    3:7    1:1    1:1
## # ... with 171 more rows, and 1 more variables: H <fctr>
…
There are 8 columns with loci, named A - H. Each locus has two alleles, coded with numbers and separated by a colon (:).

This coding suggests that the markers are codominant and that the species is diploid.

The code for missing values is ‘NA’. There seem to be quite a few missing values.

d) Create ID variable

We’ll add unique ID’s for the frogs (to show how these would be imported). Here we take, for each frog, a substring of ‘Pop’ containing the first three letters, add the row number, and separate them by a period.

Frogs <- data.frame(FrogID = paste(substr(Frogs$Pop, 1, 3), row.names(Frogs), sep="."), Frogs)
as.tibble(Frogs)

## # A tibble: 181 x 11
##    FrogID     SiteName      Pop      A      B      C      D      E      F
##    <fctr>       <fctr>   <fctr> <fctr> <fctr> <fctr> <fctr> <fctr> <fctr>
##  1  Air.1 AirplaneLake Airplane    1:1    1:1    1:1    1:1    1:2    1:1
##  2  Air.2 AirplaneLake Airplane    2:2    1:1  NA:NA    1:1    1:1  NA:NA
##  3  Air.3 AirplaneLake Airplane    1:1    1:1    1:1    1:1    3:3    1:1
##  4  Air.4 AirplaneLake Airplane    1:1    1:1  NA:NA    2:2    1:2  NA:NA
##  5  Air.5 AirplaneLake Airplane    1:2    1:3    1:1    1:1    1:2    1:1
##  6  Air.6 AirplaneLake Airplane    1:2    1:1    1:1    3:1    1:1    1:1
##  7  Air.7 AirplaneLake Airplane    2:2    1:3    1:1    1:1    3:3    1:1
##  8  Air.8 AirplaneLake Airplane    2:2    1:3    1:1    1:1    3:3    1:1
##  9  Air.9 AirplaneLake Airplane    3:1    1:1    1:1    1:1    1:7    1:1
## 10 Air.10 AirplaneLake Airplane    2:2    1:3    1:1    1:1    3:7    1:1
## # ... with 171 more rows, and 2 more variables: G <fctr>, H <fctr>
…
4. View information stored in ‘genind’ object

The summary lists each attribute or ‘slot’ of the ‘genind’ object and summarizes its content. Technically speaking, ‘genind’ objects are S4 objects in R, which means that their slots are accessed with the ‘@’ sign, rather than the ‘$’ sign for attributes of the more commonly used S3 objects. Interestingly, the object does not store the data table that was imported, but converts it to a table of allele counts.

a) Slot @tab

Table with allele counts, where each column is an allele. Allele name “A.1” means “locus A, allele 1”. For a codominant marker (e.g. microsatellite) and a diploid species, allele counts per individual can be 0, 1, 2, or NA=missing. Here are the first few lines:

as.tibble(Frogs.genind@tab)

## # A tibble: 181 x 39
##      A.1   A.2   A.3   B.1   B.3   B.2   B.4   C.1   C.2   C.4   C.5   D.1
##    <int> <int> <int> <int> <int> <int> <int> <int> <int> <int> <int> <int>
##  1     2     0     0     2     0     0     0     2     0     0     0     2
##  2     0     2     0     2     0     0     0    NA    NA    NA    NA     2
##  3     2     0     0     2     0     0     0     2     0     0     0     2
##  4     2     0     0     2     0     0     0    NA    NA    NA    NA     0
##  5     1     1     0     1     1     0     0     2     0     0     0     2
##  6     1     1     0     2     0     0     0     2     0     0     0     1
##  7     0     2     0     1     1     0     0     2     0     0     0     2
##  8     0     2     0     1     1     0     0     2     0     0     0     2
##  9     1     0     1     2     0     0     0     2     0     0     0     2
## 10     0     2     0     1     1     0     0     2     0     0     0     2
## # ... with 171 more rows, and 27 more variables: D.2 <int>, D.3 <int>,
## #   D.4 <int>, E.1 <int>, E.2 <int>, E.3 <int>, E.7 <int>, E.6 <int>,
## #   E.8 <int>, E.5 <int>, E.4 <int>, E.10 <int>, F.1 <int>, F.2 <int>,
## #   F.3 <int>, G.1 <int>, G.2 <int>, G.3 <int>, G.5 <int>, H.4 <int>,
## #   H.5 <int>, H.3 <int>, H.2 <int>, H.1 <int>, H.6 <int>, H.8 <int>,
## #   H.7 <int>
…
sep: here this refers to the .csv file! The separater is a comma.

header: yes we have column names.

Frogs.gstudio <- read_population("./data/ralu.loci.csv", 
                   type="separated", locus.columns=c(3:10), 
                   phased=NULL, sep=",", header=TRUE)

c) Check imported data

Check the column types: ‘SiteName’ and ‘Pop’ are now character vectors, and the loci columns A - H are now of class ‘locus’ (it is indicated that ‘locus’ is a S3 object type).

as.tibble(Frogs.gstudio)

## # A tibble: 181 x 10
##        SiteName      Pop           A           B           C           D
##           <chr>    <chr> <S3: locus> <S3: locus> <S3: locus> <S3: locus>
##  1 AirplaneLake Airplane         1:1         1:1         1:1         1:1
##  2 AirplaneLake Airplane         2:2         1:1        <NA>         1:1
##  3 AirplaneLake Airplane         1:1         1:1         1:1         1:1
##  4 AirplaneLake Airplane         1:1         1:1        <NA>         2:2
##  5 AirplaneLake Airplane         1:2         1:3         1:1         1:1
##  6 AirplaneLake Airplane         1:2         1:1         1:1         3:1
##  7 AirplaneLake Airplane         2:2         1:3         1:1         1:1
##  8 AirplaneLake Airplane         2:2         1:3         1:1         1:1
##  9 AirplaneLake Airplane         3:1         1:1         1:1         1:1
## 10 AirplaneLake Airplane         2:2         1:3         1:1         1:1
## # ... with 171 more rows, and 4 more variables: E <S3: locus>, F <S3:
## #   locus>, G <S3: locus>, H <S3: locus>

d) Add FrogID

Frogs.gstudio is a data frame, and we can manipulate like any other data frame. Here we will add the variable ‘FrogID’ as the first column.

Frogs.gstudio <- data.frame(FrogID=Frogs$FrogID, Frogs.gstudio) 
as.tibble(Frogs.gstudio)

## # A tibble: 181 x 11
##    FrogID     SiteName      Pop           A           B           C
##    <fctr>        <chr>    <chr> <S3: locus> <S3: locus> <S3: locus>
##  1  Air.1 AirplaneLake Airplane         1:1         1:1         1:1
##  2  Air.2 AirplaneLake Airplane         2:2         1:1        <NA>
##  3  Air.3 AirplaneLake Airplane         1:1         1:1         1:1
##  4  Air.4 AirplaneLake Airplane         1:1         1:1        <NA>
##  5  Air.5 AirplaneLake Airplane         1:2         1:3         1:1
##  6  Air.6 AirplaneLake Airplane         1:2         1:1         1:1
##  7  Air.7 AirplaneLake Airplane         2:2         1:3         1:1
##  8  Air.8 AirplaneLake Airplane         2:2         1:3         1:1
##  9  Air.9 AirplaneLake Airplane         3:1         1:1         1:1
## 10 Air.10 AirplaneLake Airplane         2:2         1:3         1:1
## # ... with 171 more rows, and 5 more variables: D <S3: locus>, E <S3:
## #   locus>, F <S3: locus>, G <S3: locus>, H <S3: locus>
