Week 2: Bonus Material
…
The function rast of package terra converts a raster object (package raster) to a SpatRaster object (package terra).

We use as.factor to tell R that this is a categorical raster layer. This is necessary because the values are coded numerically with values between 11 - 95.

NLCD <- raster(rasters[6])
NLCD.terra <- terra::as.factor(terra::rast(NLCD))

Here is a description of the cover types: https://www.mrlc.gov/data/legends/national-land-cover-database-2019-nlcd2019-legend

So far, we only have the codes in the raster attribute table (RAT). We can display that table with the function cats (for categories).

tibble::as_tibble(cats(NLCD.terra, layer=1))

## # A tibble: 96 × 2
##       ID  nlcd
##    <dbl> <dbl>
##  1     0    NA
##  2     1    NA
##  3     2    NA
##  4     3    NA
##  5     4    NA
##  6     5    NA
##  7     6    NA
##  8     7    NA
##  9     8    NA
## 10     9    NA
## # … with 86 more rows
…
