Week 5: Spatial Statistics • LandGenCourse
…
## Registered S3 method overwritten by 'gstudio':
##   method               from    
##   as.data.frame.genind adegenet

  colnames(dat) <- colnames(Frogs.ecogen@G)

Frogs.gstudio <- data.frame(ecoslot.S(Frogs.ecogen), dat)
tibble::as_tibble(Frogs.gstudio)

## # A tibble: 413 x 10
##    SiteName    Pop     A       B       C      D      E      F      G      H     
##    <fct>       <fct>   <locus> <locus> <locu> <locu> <locu> <locu> <locu> <locu>
##  1 AirplaneLa… Airpla… 1:1     1:1     1:1    1:1    1:2    1:1    1:1    4:5   
##  2 AirplaneLa… Airpla… 2:2     1:1            1:1    1:1           2:2          
##  3 AirplaneLa… Airpla… 1:1     1:1     1:1    1:1    3:3    1:1    1:1    3:3   
##  4 AirplaneLa… Airpla… 1:1     1:1            2:2    1:2                        
##  5 AirplaneLa… Airpla… 1:2     1:3     1:1    1:1    1:2    1:1    1:2    4:5   
##  6 AirplaneLa… Airpla… 1:2     1:1     1:1    1:3    1:1    1:1    1:2    4:5   
##  7 AirplaneLa… Airpla… 2:2     1:3     1:1    1:1    3:3    1:1    1:1    2:3   
##  8 AirplaneLa… Airpla… 2:2     1:3     1:1    1:1    3:3    1:1    1:1    2:3   
##  9 AirplaneLa… Airpla… 1:3     1:1     1:1    1:1    1:7    1:1    1:1    3:5   
## 10 AirplaneLa… Airpla… 2:2     1:3     1:1    1:1    3:7    1:1    1:1    3:3   
## # … with 403 more rows
…
