Week 7: Spatial Linear Models • LandGenCourse
…
The line we are looking for is: - attr(*, "modelVariog"). The attribute modelVariog has 50 rows (obs.) and 2 variables: $variog and $dist. These are the fitted values (i.e., values of the exponential variogram model for 50 distance values).

The notation attr(*, "modelVariog") is a cryptic way of telling us how to access the attribute: use the function attr and provide two arguments: the object names Fitted.variog (represented by the asterisk), and the name of the attribute, in quotes: attr(Fitted.variog, "modelVariog").

tibble::as_tibble(attr(Fitted.variog, "modelVariog"))

## # A tibble: 50 x 2
##    variog  dist
##     <dbl> <dbl>
##  1  0.598  106.
##  2  0.637  385.
##  3  0.673  665.
##  4  0.705  945.
##  5  0.734 1224.
##  6  0.760 1504.
##  7  0.784 1783.
##  8  0.805 2063.
##  9  0.824 2342.
## 10  0.841 2622.
## # … with 40 more rows
…
The previous model selected 15 MEM spatial eigenvectors, and thus fitted 15 additional models. Just like the random effects for family and population in Week 6 lab, we can save a few parameters here by fitting the set of MEM eigenvectors as a random effect. This is done by the function ‘resf’.

sfr.res <- spmoran::resf( y=Dianthus.df$A, x=Dianthus.df[,c("PatchSize", "IBR")],
               meig = meigw, method = "reml" )
sfr.res$b

##               Estimate         SE   t_value    p_value
## (Intercept) 4.05889381 0.06856506 59.197696 0.00000000
## PatchSize   0.04215982 0.01675185  2.516726 0.01531481
## IBR         0.10077818 0.08727232  1.154755 0.25402637

tibble::as_tibble(sfr.res$r)

## # A tibble: 27 x 3
##    Estimate    SE t_value
##       <dbl> <dbl>   <dbl>
##  1   0.164  0.121   1.35 
##  2  -0.0408 0.121  -0.338
##  3   0.0324 0.120   0.271
##  4  -0.0999 0.122  -0.820
##  5   0.118  0.126   0.938
##  6   0.243  0.125   1.95 
##  7   0.0281 0.126   0.224
##  8   0.0691 0.126   0.550
##  9  -0.174  0.124  -1.40 
## 10  -0.0201 0.126  -0.160
## # … with 17 more rows
…
