Week 1: Importing Genetic Data • LandGenCourse
…
c) Import with function ‘read.csv’

As the file is saved in csv format, we use the function ‘read.csv’ to import it into an R object called ‘Frogs’. Display the first few rows and columns to check whether the data have been imported correctly:

Frogs <- read.csv(paste0(here(), "/downloads/ralu.loci.csv"), header=TRUE)
as_tibble(Frogs)

## # A tibble: 181 x 10
##    SiteName     Pop      A     B     C     D     E     F     G     H    
##    <fct>        <fct>    <fct> <fct> <fct> <fct> <fct> <fct> <fct> <fct>
##  1 AirplaneLake Airplane 1:1   1:1   1:1   1:1   1:2   1:1   1:1   4:5  
##  2 AirplaneLake Airplane 2:2   1:1   NA:NA 1:1   1:1   NA:NA 2:2   NA:NA
##  3 AirplaneLake Airplane 1:1   1:1   1:1   1:1   3:3   1:1   1:1   3:3  
##  4 AirplaneLake Airplane 1:1   1:1   NA:NA 2:2   1:2   NA:NA NA:NA NA:NA
##  5 AirplaneLake Airplane 1:2   1:3   1:1   1:1   1:2   1:1   1:2   4:5  
##  6 AirplaneLake Airplane 1:2   1:1   1:1   3:1   1:1   1:1   1:2   4:5  
##  7 AirplaneLake Airplane 2:2   1:3   1:1   1:1   3:3   1:1   1:1   2:3  
##  8 AirplaneLake Airplane 2:2   1:3   1:1   1:1   3:3   1:1   1:1   2:3  
##  9 AirplaneLake Airplane 3:1   1:1   1:1   1:1   1:7   1:1   1:1   3:5  
## 10 AirplaneLake Airplane 2:2   1:3   1:1   1:1   3:7   1:1   1:1   3:3  
## # … with 171 more rows
…
There are 8 columns with loci, named A - H. Each locus has two alleles, coded with numbers and separated by a colon (:).

This coding suggests that the markers are codominant and that the species is diploid.

The code for missing values is NA, (which shows up as NA:NA for missing genetic data). There seem to be quite a few missing values.

d) Create ID variable

We’ll add unique ID’s for the frogs (to show how these would be imported). Here we take, for each frog, a substring of Pop containing the first three letters, add the row number, and separate them by a period.

Frogs <- data.frame(FrogID = paste(substr(Frogs$Pop, 1, 3), row.names(Frogs), sep="."), Frogs)
as_tibble(Frogs)

## # A tibble: 181 x 11
##    FrogID SiteName     Pop      A     B     C     D     E     F     G     H    
##    <fct>  <fct>        <fct>    <fct> <fct> <fct> <fct> <fct> <fct> <fct> <fct>
##  1 Air.1  AirplaneLake Airplane 1:1   1:1   1:1   1:1   1:2   1:1   1:1   4:5  
##  2 Air.2  AirplaneLake Airplane 2:2   1:1   NA:NA 1:1   1:1   NA:NA 2:2   NA:NA
##  3 Air.3  AirplaneLake Airplane 1:1   1:1   1:1   1:1   3:3   1:1   1:1   3:3  
##  4 Air.4  AirplaneLake Airplane 1:1   1:1   NA:NA 2:2   1:2   NA:NA NA:NA NA:NA
##  5 Air.5  AirplaneLake Airplane 1:2   1:3   1:1   1:1   1:2   1:1   1:2   4:5  
##  6 Air.6  AirplaneLake Airplane 1:2   1:1   1:1   3:1   1:1   1:1   1:2   4:5  
##  7 Air.7  AirplaneLake Airplane 2:2   1:3   1:1   1:1   3:3   1:1   1:1   2:3  
##  8 Air.8  AirplaneLake Airplane 2:2   1:3   1:1   1:1   3:3   1:1   1:1   2:3  
##  9 Air.9  AirplaneLake Airplane 3:1   1:1   1:1   1:1   1:7   1:1   1:1   3:5  
## 10 Air.10 AirplaneLake Airplane 2:2   1:3   1:1   1:1   3:7   1:1   1:1   3:3  
## # … with 171 more rows
…
The summary lists each attribute or slot of the genind object and summarizes its content. Technically speaking, genind objects are S4 objects in R, which means that their slots are accessed with the @ sign, rather than the $ sign for attributes of the more commonly used S3 objects. Interestingly, the object does not store the data table that was imported, but converts it to a table of allele counts.

a) Slot @tab

Table with allele counts, where each column is an allele. Allele name A.1 means “locus A, allele 1”. For a codominant marker (e.g. microsatellite) and a diploid species, allele counts per individual can be 0, 1, 2, or NA=missing. Here are the first few lines:

as.tibble(Frogs.genind@tab)

## Warning: `as.tibble()` is deprecated as of tibble 2.0.0.
## Please use `as_tibble()` instead.
## The signature and semantics have changed, see `?as_tibble`.
## This warning is displayed once every 8 hours.
## Call `lifecycle::last_warnings()` to see where this warning was generated.

## # A tibble: 181 x 39
##      A.1   A.2   A.3   B.1   B.3   B.2   B.4   C.1   C.2   C.4   C.5   D.1   D.2
##    <int> <int> <int> <int> <int> <int> <int> <int> <int> <int> <int> <int> <int>
##  1     2     0     0     2     0     0     0     2     0     0     0     2     0
##  2     0     2     0     2     0     0     0    NA    NA    NA    NA     2     0
##  3     2     0     0     2     0     0     0     2     0     0     0     2     0
##  4     2     0     0     2     0     0     0    NA    NA    NA    NA     0     2
##  5     1     1     0     1     1     0     0     2     0     0     0     2     0
##  6     1     1     0     2     0     0     0     2     0     0     0     1     0
##  7     0     2     0     1     1     0     0     2     0     0     0     2     0
##  8     0     2     0     1     1     0     0     2     0     0     0     2     0
##  9     1     0     1     2     0     0     0     2     0     0     0     2     0
## 10     0     2     0     1     1     0     0     2     0     0     0     2     0
## # … with 171 more rows, and 26 more variables: D.3 <int>, D.4 <int>, E.1 <int>,
## #   E.2 <int>, E.3 <int>, E.7 <int>, E.6 <int>, E.8 <int>, E.5 <int>,
## #   E.4 <int>, E.10 <int>, F.1 <int>, F.2 <int>, F.3 <int>, G.1 <int>,
## #   G.2 <int>, G.3 <int>, G.5 <int>, H.4 <int>, H.5 <int>, H.3 <int>,
## #   H.2 <int>, H.1 <int>, H.6 <int>, H.8 <int>, H.7 <int>
…
