Week 6: Quantitative Genetics • LandGenCourse
…
Goals & Background: The goal for this part of the laboratory is to construct, fit, and assess LMMs for \(δ^{13}C\). We will be using the data in the file named “WWP_phenotypic_data.txt”. These data are organized in a tab-delimited text file with seedlings grouped by maternal tree (i.e. its mother tree), plot, and population. Also included is an experimental treatment known as “block”. In a common garden, seedlings from the same maternal tree are randomized among blocks to avoid the influence of micro-environmental variation on expression of phenotypic traits.

a) Import phenytypic data

phen <- read.delim(system.file("extdata", "WWP_phenotype_data.txt",
                            package = "LandGenCourse"), sep = "\t", header = T)
tibble::as.tibble(phen)

## Warning: `as.tibble()` is deprecated as of tibble 2.0.0.
## Please use `as_tibble()` instead.
## The signature and semantics have changed, see `?as_tibble`.
## This warning is displayed once every 8 hours.
## Call `lifecycle::last_warnings()` to see where this warning was generated.

## # A tibble: 779 x 5
##    population plot  family block  d13c
##    <fct>      <fct>  <int> <int> <dbl>
##  1 blk cyn    BC1       59     5 -30.2
##  2 blk cyn    BC1       59     2 -29.7
##  3 blk cyn    BC1       59     4 -29.6
##  4 blk cyn    BC1       59     3 -29.2
##  5 blk cyn    BC1       59     1 -29.0
##  6 blk cyn    BC1       60     4 -31.2
##  7 blk cyn    BC1       60     3 -30.7
##  8 blk cyn    BC1       60     1 -30.5
##  9 blk cyn    BC1       60     5 -30.1
## 10 blk cyn    BC1       60     2 -29.3
## # … with 769 more rows
…
